03_week/05_fsm/vcd/fsm_moore.vcd
$date
	Mon Mar 17 13:32:36 2025
$end
$version
	Icarus Verilog
$end
$timescale
	1ps
$end
$scope module fsm_moore_tb $end
$var wire 1 ! o_out $end
$var reg 1 " i_clk $end
$var reg 1 # i_rstn $end
$var reg 1 $ i_seq $end
$var reg 128 % taskState [127:0] $end
$var reg 256 & vcd_file [255:0] $end
$var integer 32 ' i [31:0] $end
$scope module u_fsm_moore $end
$var wire 1 " i_clk $end
$var wire 1 # i_rstn $end
$var wire 1 $ i_seq $end
$var reg 3 ( cState [2:0] $end
$var reg 3 ) nState [2:0] $end
$var reg 1 ! o_out $end
$var reg 1 * seq $end
$upscope $end
$scope task init $end
$upscope $end
$scope task resetNCycle $end
$var reg 32 + i [31:0] $end
$upscope $end
$upscope $end
$enddefinitions $end
#0
$dumpvars
b100 +
0*
b0 )
b0 (
bx '
b101110001011110111011001100011011001000010111101100110011100110110110101011111011011010110111101101111011100100110010100101110011101100110001101100100 &
b101001001100101011100110110010101110100010111110100111101101110 %
0$
0#
0"
0!
$end
#5000
1"
#10000
0"
#15000
1"
#20000
0"
#25000
1"
#30000
0"
#35000
1"
#40000
0"
b0 '
1#
b10100100110010101110011011001010111010001011111010011110110011001100110 %
#45000
1"
#50000
0"
1$
b1 '
#55000
b1 )
1*
1"
#60000
0"
b10 '
#65000
b1 (
1"
#70000
0"
b11 '
#75000
1"
#80000
0"
b100 '
#85000
1"
#90000
0"
b101 '
#95000
1"
#100000
0"
b110 '
#105000
1"
#110000
0"
0$
b111 '
#115000
b10 )
0*
1"
#120000
0"
1$
b1000 '
#125000
b11 )
1*
b10 (
1"
#130000
0"
b1001 '
#135000
b100 )
b11 (
1"
#140000
0"
0$
b1010 '
#145000
1!
b0 )
0*
b100 (
1"
#150000
0"
1$
b1011 '
#155000
0!
b1 )
1*
b0 (
1"
#160000
0"
b1100 '
#165000
b1 (
1"
#170000
0"
0$
b1101 '
#175000
b10 )
0*
1"
#180000
0"
1$
b1110 '
#185000
b11 )
1*
b10 (
1"
#190000
0"
0$
b1111 '
#195000
b10 )
0*
b11 (
1"
#200000
0"
1$
b10000 '
#205000
b11 )
1*
b10 (
1"
#210000
0"
0$
b10001 '
#215000
b10 )
0*
b11 (
1"
#220000
0"
1$
b10010 '
#225000
b11 )
1*
b10 (
1"
#230000
0"
b10011 '
#235000
b100 )
b11 (
1"
#240000
0"
0$
b10100 '
#245000
1!
b0 )
0*
b100 (
1"
#250000
0"
1$
b10101 '
#255000
0!
b1 )
1*
b0 (
1"
#260000
0"
0$
b10110 '
#265000
b10 )
0*
b1 (
1"
#270000
0"
b10111 '
#275000
b0 )
b10 (
1"
#280000
0"
b11000 '
#285000
b0 (
1"
#290000
0"
1$
b11001 '
#295000
b1 )
1*
1"
#300000
0"
0$
b11010 '
#305000
b10 )
0*
b1 (
1"
#310000
0"
1$
b11011 '
#315000
b11 )
1*
b10 (
1"
#320000
0"
b11100 '
#325000
b100 )
b11 (
1"
#330000
0"
b11101 '
#335000
1!
b1 )
b100 (
1"
#340000
0"
b11110 '
#345000
0!
b1 (
1"
#350000
0"
0$
b11111 '
#355000
b10 )
0*
1"
#360000
0"
b100000 '
#365000
b0 )
b10 (
1"
#370000
0"
b100001 '
#375000
b0 (
1"
#380000
0"
b100010 '
#385000
1"
#390000
0"
1$
b100011 '
#395000
b1 )
1*
1"
#400000
0"
0$
b100100 '
#405000
b10 )
0*
b1 (
1"
#410000
0"
1$
b100101 '
#415000
b11 )
1*
b10 (
1"
#420000
0"
b100110 '
#425000
b100 )
b11 (
1"
#430000
0"
b100111 '
#435000
1!
b1 )
b100 (
1"
#440000
0"
b101000 '
#445000
0!
b1 (
1"
#450000
0"
b101001 '
#455000
1"
#460000
0"
0$
b101010 '
#465000
b10 )
0*
1"
#470000
0"
b101011 '
#475000
b0 )
b10 (
1"
#480000
0"
1$
b101100 '
#485000
b1 )
1*
b0 (
1"
#490000
0"
b101101 '
#495000
b1 (
1"
#500000
0"
b101110 '
#505000
1"
#510000
0"
0$
b101111 '
#515000
b10 )
0*
1"
#520000
0"
b110000 '
#525000
b0 )
b10 (
1"
#530000
0"
b110001 '
#535000
b0 (
1"
#540000
0"
b110010 '
#545000
1"
#550000
0"
b110011 '
#555000
1"
#560000
0"
1$
b110100 '
#565000
b1 )
1*
1"
#570000
0"
0$
b110101 '
#575000
b10 )
0*
b1 (
1"
#580000
0"
b110110 '
#585000
b0 )
b10 (
1"
#590000
0"
1$
b110111 '
#595000
b1 )
1*
b0 (
1"
#600000
0"
b111000 '
#605000
b1 (
1"
#610000
0"
0$
b111001 '
#615000
b10 )
0*
1"
#620000
0"
b111010 '
#625000
b0 )
b10 (
1"
#630000
0"
b111011 '
#635000
b0 (
1"
#640000
0"
b111100 '
#645000
1"
#650000
0"
b111101 '
#655000
1"
#660000
0"
1$
b111110 '
#665000
b1 )
1*
1"
#670000
0"
b111111 '
#675000
b1 (
1"
#680000
0"
b1000000 '
#685000
1"
#690000
0"
b1000001 '
#695000
1"
#700000
0"
b1000010 '
#705000
1"
#710000
0"
0$
b1000011 '
#715000
b10 )
0*
1"
#720000
0"
b1000100 '
#725000
b0 )
b10 (
1"
#730000
0"
1$
b1000101 '
#735000
b1 )
1*
b0 (
1"
#740000
0"
b1000110 '
#745000
b1 (
1"
#750000
0"
b1000111 '
#755000
1"
#760000
0"
0$
b1001000 '
#765000
b10 )
0*
1"
#770000
0"
b1001001 '
#775000
b0 )
b10 (
1"
#780000
0"
1$
b1001010 '
#785000
b1 )
1*
b0 (
1"
#790000
0"
b1001011 '
#795000
b1 (
1"
#800000
0"
0$
b1001100 '
#805000
b10 )
0*
1"
#810000
0"
1$
b1001101 '
#815000
b11 )
1*
b10 (
1"
#820000
0"
b1001110 '
#825000
b100 )
b11 (
1"
#830000
0"
0$
b1001111 '
#835000
1!
b0 )
0*
b100 (
1"
#840000
0"
1$
b1010000 '
#845000
0!
b1 )
1*
b0 (
1"
#850000
0"
b1010001 '
#855000
b1 (
1"
#860000
0"
b1010010 '
#865000
1"
#870000
0"
0$
b1010011 '
#875000
b10 )
0*
1"
#880000
0"
1$
b1010100 '
#885000
b11 )
1*
b10 (
1"
#890000
0"
b1010101 '
#895000
b100 )
b11 (
1"
#900000
0"
0$
b1010110 '
#905000
1!
b0 )
0*
b100 (
1"
#910000
0"
b1010111 '
#915000
0!
b0 (
1"
#920000
0"
b1011000 '
#925000
1"
#930000
0"
b1011001 '
#935000
1"
#940000
0"
1$
b1011010 '
#945000
b1 )
1*
1"
#950000
0"
b1011011 '
#955000
b1 (
1"
#960000
0"
0$
b1011100 '
#965000
b10 )
0*
1"
#970000
0"
b1011101 '
#975000
b0 )
b10 (
1"
#980000
0"
1$
b1011110 '
#985000
b1 )
1*
b0 (
1"
#990000
0"
b1011111 '
#995000
b1 (
1"
#1000000
0"
b1100000 '
#1005000
1"
#1010000
0"
b1100001 '
#1015000
1"
#1020000
0"
b1100010 '
#1025000
1"
#1030000
0"
0$
b1100011 '
#1035000
b10 )
0*
1"
#1040000
0"
b1100100 '
#1045000
b0 )
b10 (
1"
